Startort,Datum,Distans,Ansvarig,E-post,Länk till GPS,BRM Namn,Klubbens webbsida
Barkarby,2024-01-13,200,Sture Svahn,mail@sturesvahn.se,,,www.randonneurstockholm.se
Barkarby,2024-04-06,200,Sture Svahn,mail@sturesvahn.se,,,www.randonneurstockholm.se
Barkarby,2024-04-20,300,Sture Svahn,mail@sturesvahn.se,,,www.randonneurstockholm.se
Barkarby,2024-04-30,400,Sture Svahn,mail@sturesvahn.se,,,www.randonneurstockholm.se
Barkarby,2024-05-04,200,Sture Svahn,mail@sturesvahn.se,,,www.randonneurstockholm.se
Barkarby,2024-06-01,600,Sture Svahn,mail@sturesvahn.se,,,www.randonneurstockholm.se
Barkarby,2024-07-05,400,Sture Svahn,mail@sturesvahn.se,,,www.randonneurstockholm.se
Barkarby,2024-07-20,600,Sture Svahn,mail@sturesvahn.se,,,www.randonneurstockholm.se
Barkarby,2024-08-03,300,Sture Svahn,mail@sturesvahn.se,,,www.randonneurstockholm.se
Barkarby,2024-09-07,300,Sture Svahn,mail@sturesvahn.se,,,www.randonneurstockholm.se
Barkarby,2024-10-19,200,Sture Svahn,mail@sturesvahn.se,,,www.randonneurstockholm.se
Bollnäs,2024-04-20,200,Peter Hedin,halsingebrevet@gmail.com,https://ridewithgps.com/routes/44704303,Liten men tuff,https://www.bollnasck.se/bollnasck/sida/88792/randonnee
Bollnäs,2024-05-11,200,Peter Hedin,halsingebrevet@gmail.com,https://ridewithgps.com/routes/35996944,Byar och Backar,https://www.bollnasck.se/bollnasck/sida/88792/randonnee
Bollnäs,2024-05-25,300,Peter Hedin,halsingebrevet@gmail.com,https://ridewithgps.com/routes/36419745,Hem till lilla Järvsö,https://www.bollnasck.se/bollnasck/sida/88792/randonnee
Bollnäs,2024-06-08,400,Peter Hedin,halsingebrevet@gmail.com,https://ridewithgps.com/routes/43255458,Mot Sundsvall!,https://www.bollnasck.se/bollnasck/sida/88792/randonnee
Bollnäs,2024-07-06,600,Peter Hedin,halsingebrevet@gmail.com,https://ridewithgps.com/routes/36007175,Tour de Gävleborg,https://www.bollnasck.se/bollnasck/sida/88792/randonnee
Bollnäs,2024-07-25,1000,Peter Hedin,halsingebrevet@gmail.com,https://ridewithgps.com/routes/44400966,100 mil till Røros,https://www.bollnasck.se/bollnasck/sida/88792/randonnee
Bollnäs,2024-08-31,200,Peter Hedin,halsingebrevet@gmail.com,https://ridewithgps.com/routes/37109987,20 mil grus,https://www.bollnasck.se/bollnasck/sida/88792/randonnee
Granö,2024-06-01,200,Florian Kynman,info@vasterbottenbrevet.se,https://www.strava.com/routes/2856228137047114018,BRM 200K Granö Gravel,vasterbottenbrevet.se
Jönköping,2024-04-04,200,Sölve Johansson,solve.joh@telia.com,,,www.ckdistans.se
Jönköping,2024-04-06,200,Sölve Johansson,solve.joh@telia.com,,,www.ckdistans.se
Jönköping,2024-04-11,300,Sölve Johansson,solve.joh@telia.com,,,www.ckdistans.se
Jönköping,2024-04-13,300,Sölve Johansson,solve.joh@telia.com,,,www.ckdistans.se
Jönköping,2024-05-02,400,Sölve Johansson,solve.joh@telia.com,,,www.ckdistans.se
Jönköping,2024-05-04,400,Sölve Johansson,solve.joh@telia.com,,,www.ckdistans.se
Jönköping,2024-05-30,600,Sölve Johansson,solve.joh@telia.com,,,www.ckdistans.se
Jönköping,2024-06-01,600,Sölve Johansson,solve.joh@telia.com,,,www.ckdistans.se
Jönköping,2024-09-21,200,Sölve Johansson,solve.joh@telia.com,,,www.ckdistans.se
Kittelfjäll,2024-07-06,600,Florian Kynman,info@vasterbottenbrevet.se,https://www.strava.com/routes/3020284974095436538,BRM 600K Mosjøen,vasterbottenbrevet.se
Köping,2024-01-27,200,Peter Tonér,info@ckdistans.se,Dashboard · Ride with GPS,Romboberg,www.ckdistans.se
Köping,2024-02-17,300,Peter Tonér,info@ckdistans.se,,,www.ckdistans.se
Köping,2024-05-24,200,Peter Tonér,info@ckdistans.se,,,www.ckdistans.se
Köping,2024-05-24,1000,Peter Tonér,info@ckdistans.se,"1000 Över trädgränsen MEDSOLS - A bike ride in Köping, Västmanlands län (ridewithgps.com)",,www.ckdistans.se
Köping,2024-09-13,400,Peter Tonér,info@ckdistans.se,,Picasso,www.ckdistans.se
Linköping,2024-04-20,200,Martin Nilsson,randonneur.lkpg@gmail.com,,,https://ckhymer.com/randonneur/
Linköping,2024-05-04,300,Martin Nilsson,randonneur.lkpg@gmail.com,,,https://ckhymer.com/randonneur/
Linköping,2024-05-18,400,Martin Nilsson,randonneur.lkpg@gmail.com,,,https://ckhymer.com/randonneur/
Linköping,2024-06-01,600,Martin Nilsson,randonneur.lkpg@gmail.com,,,https://ckhymer.com/randonneur/
Linköping,2024-06-06,200,Martin Nilsson,randonneur.lkpg@gmail.com,,,https://ckhymer.com/randonneur/
Linköping,2024-07-20,300,Martin Nilsson,randonneur.lkpg@gmail.com,,,https://ckhymer.com/randonneur/
Linköping,2024-09-07,200,Martin Nilsson,randonneur.lkpg@gmail.com,,,https://ckhymer.com/randonneur/
Lund,2024-05-09,200,Nils Calmsund,nils.calmsund@gmail.com,,Lund,milslukaren.se
Lund,2024-06-06,200,Nils Calmsund,nils.calmsund@gmail.com,,Lund,milslukaren.se
Lund,2024-08-24,300,Nils Calmsund,nils.calmsund@gmail.com,,Lund,milslukaren.se
Lund,2024-10-05,200,Nils Calmsund,nils.calmsund@gmail.com,,Lund,milslukaren.se
Malmö,2024-03-23,200,Nils Calmsund,nils.calmsund@gmail.com,,Malmö,milslukaren.se
Malmö,2024-04-13,200,Nils Calmsund,nils.calmsund@gmail.com,,Malmö,milslukaren.se
Malmö,2024-04-20,300,Nils Calmsund,nils.calmsund@gmail.com,,Malmö,milslukaren.se
Malmö,2024-05-01,200,Nils Calmsund,nils.calmsund@gmail.com,,Malmö,milslukaren.se
Malmö,2024-05-04,300,Nils Calmsund,nils.calmsund@gmail.com,,Malmö,milslukaren.se
Malmö,2024-05-11,400,Nils Calmsund,nils.calmsund@gmail.com,,Malmö,milslukaren.se
Malmö,2024-05-18,400,Nils Calmsund,nils.calmsund@gmail.com,,Malmö,milslukaren.se
Malmö,2024-06-01,600,Nils Calmsund,nils.calmsund@gmail.com,,Malmö,milslukaren.se
Malmö,2024-06-15,600,Nils Calmsund,nils.calmsund@gmail.com,,Malmö,milslukaren.se
Malmö,2024-07-04,1000,Nils Calmsund,nils.calmsund@gmail.com,,Malmö,milslukaren.se
Malmö,2024-07-20,400,Nils Calmsund,nils.calmsund@gmail.com,,Malmö,milslukaren.se
Malmö,2024-08-03,600,Nils Calmsund,nils.calmsund@gmail.com,,Malmö,milslukaren.se
Malmö,2024-09-14,200,Nils Calmsund,nils.calmsund@gmail.com,,Malmö,milslukaren.se
Mölndal,2024-04-13,200,BeGe Olsson,bege.bike@gmail.com,,BRM 200 Mölndal,www.randonneurvest.se
Mölndal,2024-04-20,200,Daniel Ridings,daniel.ridings@randonneurs.se,https://ridewithgps.com/routes/43927648,Öströö fårfarm,https://www.randonneurgoth.com
Mölndal,2024-04-27,300,BeGe Olsson,bege.bike@gmail.com,,BRM 300 Mölndal,www.randonneurvest.se
Mölndal,2024-05-03,200,BeGe Olsson,bege.bike@gmail.com,,BRM 200 Erikslund,www.randonneurvest.se
Mölndal,2024-05-04,300,BeGe Olsson,bege.bike@gmail.com,,BRM 300 Erikslund,www.randonneurvest.se
Mölndal,2024-05-11,300,Daniel Ridings,daniel.ridings@randonneurs.se,https://ridewithgps.com/routes/33505170,,https://www.randonneurgoth.com
Mölndal,2024-05-25,300,Daniel Ridings,daniel.ridings@randonneurs.se,https://ridewithgps.com/routes/33505170,,https://www.randonneurgoth.com
Mölndal,2024-06-06,400,Daniel Ridings,daniel.ridings@randonneurs.se,,,https://www.randonneurgoth.com
Mölndal,2024-06-08,400,Daniel Ridings,daniel.ridings@randonneurs.se,,,https://www.randonneurgoth.com
Mölndal,2024-06-29,600,Daniel Ridings,daniel.ridings@randonneurs.se,https://ridewithgps.com/routes/44633949,,https://www.randonneurgoth.com
Mölndal,2024-07-06,400,BeGe Olsson,bege.bike@gmail.com,,BRM 400 Mölndal,www.randonneurvest.se
Mölndal,2024-07-27,600,BeGe Olsson,bege.bike@gmail.com,,BRM 600 Mölndal,www.randonneurvest.se
Mölndal,2024-08-10,400,Daniel Ridings,daniel.ridings@randonneurs.se,,,https://www.randonneurgoth.com
Mölndal,2024-08-17,300,Daniel Ridings,daniel.ridings@randonneurs.se,,,https://www.randonneurgoth.com
Mölndal,2024-08-24,200,Daniel Ridings,daniel.ridings@randonneurs.se,,,https://www.randonneurgoth.com
Mölndal,2024-09-14,300,Daniel Ridings,daniel.ridings@randonneurs.se,,,https://www.randonneurgoth.com
Mölndal,2024-09-28,200,Daniel Ridings,daniel.ridings@randonneurs.se,,,https://www.randonneurgoth.com
Norrköping,2024-03-16,200,Benjamin Hell,rando@bhell.net,https://ridewithgps.com/collections/2204769?privacy_code=DityNxFRih7kOVaXLqhOcERkHgnZ7NVJ,BRM 200km Norrköping - Smålandsutflykt,https://ckdistans.wordpress.com/vasterasbreveter/norrkoping/
Norrköping,2024-04-13,200,Benjamin Hell,rando@bhell.net,https://ridewithgps.com/collections/2204769?privacy_code=DityNxFRih7kOVaXLqhOcERkHgnZ7NVJ,BRM 200km Norrköping - Smålandsutflykt,https://ckdistans.wordpress.com/vasterasbreveter/norrkoping/
Norrköping,2024-04-13,300,Benjamin Hell,rando@bhell.net,https://ridewithgps.com/collections/2204769?privacy_code=DityNxFRih7kOVaXLqhOcERkHgnZ7NVJ,BRM 300km Norrköping - Östergötland XL,https://ckdistans.wordpress.com/vasterasbreveter/norrkoping/
Norrköping,2024-05-11,300,Benjamin Hell,rando@bhell.net,https://ridewithgps.com/collections/2204769?privacy_code=DityNxFRih7kOVaXLqhOcERkHgnZ7NVJ,BRM 300km Norrköping - Östergötland XL,https://ckdistans.wordpress.com/vasterasbreveter/norrkoping/
Norrköping,2024-05-11,400,Benjamin Hell,rando@bhell.net,https://ridewithgps.com/collections/2204769?privacy_code=DityNxFRih7kOVaXLqhOcERkHgnZ7NVJ,BRM 400km Norrköping - Tabergstoppen,https://ckdistans.wordpress.com/vasterasbreveter/norrkoping/
Norrköping,2024-06-07,600,Benjamin Hell,rando@bhell.net,https://ridewithgps.com/collections/2204769?privacy_code=DityNxFRih7kOVaXLqhOcERkHgnZ7NVJ,BRM 600km Norrköping - Dubbelvättern,https://ckdistans.wordpress.com/vasterasbreveter/norrkoping/
Norrköping,2024-06-08,400,Benjamin Hell,rando@bhell.net,https://ridewithgps.com/collections/2204769?privacy_code=DityNxFRih7kOVaXLqhOcERkHgnZ7NVJ,BRM 400km Norrköping - Tabergstoppen,https://ckdistans.wordpress.com/vasterasbreveter/norrkoping/
Norrköping,2024-06-21,1000,Benjamin Hell,rando@bhell.net,https://ridewithgps.com/collections/2204769?privacy_code=DityNxFRih7kOVaXLqhOcERkHgnZ7NVJ,Prel. BRM 1000km Norrköping,https://ckdistans.wordpress.com/vasterasbreveter/norrkoping/
Norrköping,2024-09-14,300,Benjamin Hell,rando@bhell.net,https://ridewithgps.com/collections/2204769?privacy_code=DityNxFRih7kOVaXLqhOcERkHgnZ7NVJ,BRM 300km Norrköping (grus),https://ckdistans.wordpress.com/vasterasbreveter/norrkoping/
Norrköping,2024-09-28,200,Benjamin Hell,rando@bhell.net,https://ridewithgps.com/collections/2204769?privacy_code=DityNxFRih7kOVaXLqhOcERkHgnZ7NVJ,BRM 200km Norrköping (grus),https://ckdistans.wordpress.com/vasterasbreveter/norrkoping/
Skövde,2024-04-27,200,Ulf Sandberg,sandberg@artech.se,,,www.randonneurvest.se
Skövde,2024-05-01,200,Ulf Sandberg,sandberg@artech.se,,,www.randonneurvest.se
Skövde,2024-05-11,300,Ulf Sandberg,sandberg@artech.se,,,www.randonneurvest.se
Skövde,2024-05-18,360,Ulf Sandberg,sandberg@artech.se,,Flèche,
Skövde,2024-05-25,400,Ulf Sandberg,sandberg@artech.se,,,www.randonneurvest.se
Skövde,2024-05-29,200,Ulf Sandberg,sandberg@artech.se,,,www.randonneurvest.se
Skövde,2024-06-08,600,Ulf Sandberg,sandberg@artech.se,,,www.randonneurvest.se
Skövde,2024-07-01,200,Ulf Sandberg,sandberg@artech.se,,Brevet Vecka L1,www.randonneurvest.se
Skövde,2024-07-03,300,Ulf Sandberg,sandberg@artech.se,,Brevet Vecka L2,www.randonneurvest.se
Skövde,2024-07-08,400,Ulf Sandberg,sandberg@artech.se,,Brevet Vecka L3,www.randonneurvest.se
Skövde,2024-07-11,600,Ulf Sandberg,sandberg@artech.se,,Brevet Vecka L4,www.randonneurvest.se
Skövde,2024-08-10,200,Ulf Sandberg,sandberg@artech.se,,BRM 200K Tre Toppar,www.randonneurvest.se
Skövde,2024-09-07,200,Ulf Sandberg,sandberg@artech.se,,BRM 200K Tre Toppar,www.randonneurvest.se
Södertälje,2024-04-13,200,Åsa Hittig,asa@hittig.se,,,www.randonneurstockholm.se
Södertälje,2024-04-20,300,Åsa Hittig,asa@hittig.se,,,www.randonneurstockholm.se
Södertälje,2024-05-11,400,Åsa Hittig,asa@hittig.se,,,www.randonneurstockholm.se
Södertälje,2024-06-01,600,Åsa Hittig,asa@hittig.se,,,www.randonneurstockholm.se
Södertälje,2024-06-06,200,Åsa Hittig,asa@hittig.se,,,www.randonneurstockholm.se
Södertälje,2024-06-27,1200,Åsa Hittig,asa@hittig.se,,,www.randonneurstockholm.se
Södertälje,2024-09-14,200,Åsa Hittig,asa@hittig.se,,,www.randonneurstockholm.se
Torsby,2024-05-11,200,Lars Blomqvist,lablo@telia.com,,"200K Torsby, Värmland",www.ckdistans.se
Torsby,2024-05-25,300,Lars Blomqvist,lablo@telia.com,,"300K Torsby, Värmland",www.ckdistans.se
Tranås,2024-04-18,200,Martin Bonta,martin.bonta@gmail.com,https://ridewithgps.com/routes/37270122,"TCK 200 Vetlanda, moturs",https://www.svenskalag.se/tranasck/sida/91841/randonneur
Tranås,2024-04-20,200,Martin Bonta,martin.bonta@gmail.com,https://ridewithgps.com/routes/37270122,"TCK 200 Vetlanda, moturs",https://www.svenskalag.se/tranasck/sida/91841/randonneur
Tranås,2024-05-02,300,Martin Bonta,martin.bonta@gmail.com,https://ridewithgps.com/routes/37282005,"TCK 300 Åseda, moturs",https://www.svenskalag.se/tranasck/sida/91841/randonneur
Tranås,2024-05-04,300,Martin Bonta,martin.bonta@gmail.com,https://ridewithgps.com/routes/37282005,"TCK 300 Åseda, moturs",https://www.svenskalag.se/tranasck/sida/91841/randonneur
Tranås,2024-05-16,400,Martin Bonta,martin.bonta@gmail.com,https://ridewithgps.com/routes/40969698,TCK 400 Vingåker,https://www.svenskalag.se/tranasck/sida/91841/randonneur
Tranås,2024-05-18,400,Martin Bonta,martin.bonta@gmail.com,https://ridewithgps.com/routes/40969698,TCK 400 Vingåker,https://www.svenskalag.se/tranasck/sida/91841/randonneur
Tranås,2024-06-01,600,Martin Bonta,martin.bonta@gmail.com,https://ridewithgps.com/routes/41150597,TCK 600 dubbelrundan,https://www.svenskalag.se/tranasck/sida/91841/randonneur
Tranås,2024-06-04,600,Martin Bonta,martin.bonta@gmail.com,https://ridewithgps.com/routes/41150597,TCK 600 dubbelrundan,https://www.svenskalag.se/tranasck/sida/91841/randonneur
Trollhättan,2024-03-09,200,Ulrika Möller,moller.ulrika@telia.com,https://ridewithgps.com/routes/35379363,BRM200_THN_Skärhamn_Nösund,https://ckdistans.wordpress.com/omckdistans/
Trollhättan,2024-03-23,200,Ulrika Möller,moller.ulrika@telia.com,https://ridewithgps.com/routes/35379363,BRM200_THN_Skärhamn_Nösund,https://ckdistans.wordpress.com/omckdistans/
Trollhättan,2024-04-13,300,Ulrika Möller,moller.ulrika@telia.com,https://ridewithgps.com/routes/35390999,BRM 300 Trollhättan 2021,https://ckdistans.wordpress.com/omckdistans/
Trollhättan,2024-04-27,400,Ulrika Möller,moller.ulrika@telia.com,https://ridewithgps.com/routes/35835558,BRM 400 Thn 2021,https://ckdistans.wordpress.com/omckdistans/
Trollhättan,2024-05-25,400,Ulrika Möller,moller.ulrika@telia.com,https://ridewithgps.com/routes/35835558,BRM 400 Thn 2021,https://ckdistans.wordpress.com/omckdistans/
Trollhättan,2024-07-06,600,Ulrika Möller,moller.ulrika@telia.com,https://ridewithgps.com/routes/36326055,BRM 600 Thn 2021,https://ckdistans.wordpress.com/omckdistans/
Trollhättan,2024-08-17,300,Ulrika Möller,moller.ulrika@telia.com,https://ridewithgps.com/routes/35390999,BRM 300 Trollhättan 2021,https://ckdistans.wordpress.com/omckdistans/
Trollhättan,2024-09-14,200,Ulrika Möller,moller.ulrika@telia.com,https://ridewithgps.com/routes/35379363,BRM200_THN_Skärhamn_Nösund,https://ckdistans.wordpress.com/omckdistans/
Täby,2024-05-01,300,Niklas Edvall,niklasedvall@gmail.com,,,www.randonneurstockholm.se
Täby,2024-05-04,400,Niklas Edvall,niklasedvall@gmail.com,,,www.randonneurstockholm.se
Täby,2024-05-25,400,Niklas Edvall,niklasedvall@gmail.com,,,www.randonneurstockholm.se
Täby,2024-06-07,200,Niklas Edvall,niklasedvall@gmail.com,,,www.randonneurstockholm.se
Täby,2024-06-08,200,Niklas Edvall,niklasedvall@gmail.com,,,www.randonneurstockholm.se
Täby,2024-06-09,200,Niklas Edvall,niklasedvall@gmail.com,,,www.randonneurstockholm.se
Täby,2024-06-15,200,Niklas Edvall,niklasedvall@gmail.com,,,www.randonneurstockholm.se
Täby,2024-09-21,200,Niklas Edvall,niklasedvall@gmail.com,,,www.randonneurstockholm.se
Täby,2024-09-28,200,Niklas Edvall,niklasedvall@gmail.com,,,www.randonneurstockholm.se
Täby,2024-10-05,200,Niklas Edvall,niklasedvall@gmail.com,,,www.randonneurstockholm.se
Ullånger,2024-07-13,200,Florian Kynman,info@vasterbottenbrevet.se,https://www.strava.com/routes/3100349179201448984,BRM 200K Bönhamn,vasterbottenbrevet.se
Umeå,2024-05-11,200,Florian Kynman,info@vasterbottenbrevet.se,https://www.strava.com/routes/3133003829577708050,BRM 200K Ottonträsk,vasterbottenbrevet.se
Umeå,2024-05-18,300,Florian Kynman,info@vasterbottenbrevet.se,https://www.strava.com/routes/2999691256445041690,BRM 300K Lycksele,vasterbottenbrevet.se
Umeå,2024-05-25,300,Florian Kynman,info@vasterbottenbrevet.se,https://www.strava.com/routes/3132979590451078674,BRM 300K Aspsele Gravel,vasterbottenbrevet.se
Umeå,2024-06-01,400,Florian Kynman,info@vasterbottenbrevet.se,https://www.strava.com/routes/2851772940382696562,BRM 400K Åmliden,vasterbottenbrevet.se
Umeå,2024-06-08,600,Florian Kynman,info@vasterbottenbrevet.se,https://www.strava.com/routes/3117536179231158662,BRM 600K Vilhelmina,vasterbottenbrevet.se
Umeå,2024-06-16,1200,Florian Kynman,info@vasterbottenbrevet.se,https://www.strava.com/routes/3112343723066404284,LRM 1200K Midnight Sun Randonnée,vasterbottenbrevet.se
Umeå,2024-06-29,400,Florian Kynman,info@vasterbottenbrevet.se,https://www.strava.com/routes/2851772940382696562,BRM 400K Åmliden,vasterbottenbrevet.se
Uppsala,2024-04-27,200,Per Eric Rosén,per@rosnix.net,,,www.randonneurstockholm.se
Uppsala,2024-05-04,300,Per Eric Rosén,per@rosnix.net,,,www.randonneurstockholm.se
Uppsala,2024-05-25,200,Per Eric Rosén,per@rosnix.net,,,www.randonneurstockholm.se
Uppsala,2024-06-08,300,Per Eric Rosén,per@rosnix.net,,,www.randonneurstockholm.se
Uppsala,2024-06-29,400,Per Eric Rosén,per@rosnix.net,,,www.randonneurstockholm.se
Uppsala,2024-08-17,600,Per Eric Rosén,per@rosnix.net,,,www.randonneurstockholm.se
Varberg,2024-04-06,200,Tore Fosse,randonneur.ckwano@gmail.com,,,www.ckwano.se
Varberg,2024-04-13,200,Tore Fosse,randonneur.ckwano@gmail.com,,,www.ckwano.se
Varberg,2024-05-18,200,Tore Fosse,randonneur.ckwano@gmail.com,,,www.ckwano.se
Varberg,2024-05-18,300,Tore Fosse,randonneur.ckwano@gmail.com,,,www.ckwano.se
Varberg,2024-06-01,200,Tore Fosse,randonneur.ckwano@gmail.com,,,www.ckwano.se
Varberg,2024-06-01,300,Tore Fosse,randonneur.ckwano@gmail.com,,,www.ckwano.se
Varberg,2024-06-01,400,Tore Fosse,randonneur.ckwano@gmail.com,,,www.ckwano.se
Västerås,2024-04-06,200,Jonas Nilsson,jonas@westaros.com,https://ridewithgps.com/routes/42317092,Lite Uppland,www.ckdistans.se
Västerås,2024-04-20,300,Jonas Nilsson,jonas@westaros.com,https://ridewithgps.com/routes/32309053,Runt Tjuvholmen,www.ckdistans.se
Västerås,2024-05-04,400,Jonas Nilsson,jonas@westaros.com,https://ridewithgps.com/routes/20163239,Norrlands Inland,www.ckdistans.se
Västerås,2024-05-18,300,Jonas Nilsson,jonas@westaros.com,https://ridewithgps.com/routes/29603027,I Alla Fall En Backe,www.ckdistans.se
Västerås,2024-06-15,600,Jonas Nilsson,jonas@westaros.com,https://ridewithgps.com/routes/33157543,Vidablick,www.ckdistans.se
Västerås (Skultuna),2024-08-03,200,Jonas Nilsson,jonas@westaros.com,https://ridewithgps.com/routes/43795154,Länets Tak,www.ckdistans.se
Örebro,2024-04-13,200,Per-Erik Egebäck,per-erik.egeback@orebrocyklisterna.se,,BRM 200,https://www.orebrocyklisterna.se
Örebro,2024-04-27,200,Per-Erik Egebäck,per-erik.egeback@orebrocyklisterna.se,,BRM 200,https://www.orebrocyklisterna.se
Örebro,2024-04-27,300,Per-Erik Egebäck,per-erik.egeback@orebrocyklisterna.se,,BRM 300,https://www.orebrocyklisterna.se
Örebro,2024-05-11,300,Per-Erik Egebäck,per-erik.egeback@orebrocyklisterna.se,,BRM 300,https://www.orebrocyklisterna.se
Örebro,2024-05-11,400,Per-Erik Egebäck,per-erik.egeback@orebrocyklisterna.se,,BRM 400,https://www.orebrocyklisterna.se
Örebro,2024-05-25,400,Per-Erik Egebäck,per-erik.egeback@orebrocyklisterna.se,,BRM 400,https://www.orebrocyklisterna.se
Örebro,2024-05-25,600,Per-Erik Egebäck,per-erik.egeback@orebrocyklisterna.se,,BRM 600,https://www.orebrocyklisterna.se
Örebro,2024-06-08,200,Per-Erik Egebäck,per-erik.egeback@orebrocyklisterna.se,,BRM 200,https://www.orebrocyklisterna.se
Örebro,2024-06-08,600,Per-Erik Egebäck,per-erik.egeback@orebrocyklisterna.se,,BRM 600,https://www.orebrocyklisterna.se
Örebro,2024-07-04,1000,Per-Erik Egebäck,per-erik.egeback@orebrocyklisterna.se,,BRM 1000,https://www.orebrocyklisterna.se
Örebro,2024-08-31,200,Martin Bonta,martin.bonta@gmail.com,https://ridewithgps.com/routes/37668296,"TCK 200 Vetlanda, medurs",https://www.svenskalag.se/tranasck/sida/91841/randonneur
Örebro,2024-08-31,300,Per-Erik Egebäck,per-erik.egeback@orebrocyklisterna.se,,BRM 300,https://www.orebrocyklisterna.se
Örebro,2024-09-14,200,Per-Erik Egebäck,per-erik.egeback@orebrocyklisterna.se,,BRM 200,https://www.orebrocyklisterna.se