[
    {
        "Location": "Barkaby",
        "Organizer": "Sture Svahn",
        "Email": "mail@sturesvahn.se",
        "Phone": "070-727 44 46",
        "Club": "Randonneur Stockholm",
        "Url": "https://www.randonneurstockholm.se/",
        "Brevets": [
            {
                "Distance": "200",
                "Date": "2022-01-15",
                "Url": "https://www.randonneurstockholm.se/events/tour-de-otzi/"
            },
            {
                "Distance": "200",
                "Date": "2022-04-09",
                "Url": "https://www.randonneurstockholm.se/events/nastan-till-vasteras/"
            },
            {
                "Distance": "200",
                "Date": "2022-10-08",
                "Url": "https://www.randonneurstockholm.se/events/200-fd-jubileumsrundan/"
            },
            {
                "Distance": "300",
                "Date": "2022-06-11",
                "Url": "https://www.randonneurstockholm.se/events/jubileumsbrevet/"
            },
            {
                "Distance": "300",
                "Date": "2022-08-13",
                "Url": "https://www.randonneurstockholm.se/events/vamos-a-la-oregrund/"
            },
            {
                "Distance": "400",
                "Date": "2022-04-30",
                "Url": "https://www.randonneurstockholm.se/events/till-sandviken/"
            },
            {
                "Distance": "600",
                "Date": "2022-08-27",
                "Url": "https://www.randonneurstockholm.se/events/rattvik-tor/"
            }
        ]
    },
    {
        "Location": "Bollnäs",
        "Organizer": "Peter Hedin",
        "Email": "peter.hedin@gmail.com",
        "Phone": "073-732 38 81",
        "Club": "Bollnäs CK",
        "Url": "https://idrottonline.se/BollnasCK-Cykel/",
        "Brevets": [
            {
                "Distance": "200",
                "Date": "2022-05-07",
                "Url": "https://ridewithgps.com/routes/35996944"
            },
            {
                "Distance": "200",
                "Date": "2022-09-03",
                "Url": "https://ridewithgps.com/routes/37109987"
            },
            {
                "Distance": "300",
                "Date": "2022-05-28",
                "Url": "https://ridewithgps.com/routes/36419745"
            },
            {
                "Distance": "300",
                "Date": "2022-06-11",
                "Url": "https://ridewithgps.com/routes/37260468"
            },
            {
                "Distance": "400",
                "Date": "2022-07-09",
                "Url": "https://ridewithgps.com/routes/35999187"
            },
            {
                "Distance": "600",
                "Date": "2022-08-06",
                "Url": "https://ridewithgps.com/routes/36007175"
            }
        ]
    },
    {
        "Location": "Göteborg",
        "Organizer": "Daniel Ridings",
        "Email": "daniel.ridings@randonneurs.se",
        "Phone": "070-729 12 53",
        "Club": "Brevetlopp från Göteborg",
        "Url": "https://www.randonneurgoth.com",
        "Brevets": [
            {
                "Distance": "200",
                "Date": "2022-04-09",
                "Url": "https://ridewithgps.com/routes/33886066"
            },
            {
                "Distance": "200",
                "Date": "2022-04-15",
                "Url": "https://ridewithgps.com/events/81675-brm-200-n-2022"
            },
            {
                "Distance": "200",
                "Date": "2022-09-03",
                "Url": "https://ridewithgps.com/routes/37356711"
            },
            {
                "Distance": "300",
                "Date": "2022-04-23",
                "Url": "https://ridewithgps.com/routes/34406886"
            },
            {
                "Distance": "300",
                "Date": "2022-05-07",
                "Url": "https://ridewithgps.com/routes/33505170"
            },
            {
                "Distance": "300",
                "Date": "2022-06-11",
                "Url": ""
            },
            {
                "Distance": "300",
                "Date": "2022-08-06",
                "Url": "https://ridewithgps.com/routes/34406886"
            },
            {
                "Distance": "400",
                "Date": "2022-05-21",
                "Url": "https://ridewithgps.com/routes/31605646"
            },
            {
                "Distance": "400",
                "Date": "2022-06-18",
                "Url": "https://ridewithgps.com/events/84223-brm-400-n-2022"
            },
            {
                "Distance": "600",
                "Date": "2022-05-28",
                "Url": "https://ridewithgps.com/routes/32757372"
            },
            {
                "Distance": "1000",
                "Date": "2022-06-30",
                "Url": "https://ridewithgps.com/routes/27352018"
            }
        ]
    },
    {
        "Location": "Halmstad",
        "Organizer": "Lars Jacobsson",
        "Email": "larsjacobsson999@gmail.com",
        "Phone": "070-553 50 08",
        "Club": "Randonneur Väst",
        "Url": "https://www.randonneurvest.se/",
        "Brevets": [
            {
                "Distance": "200",
                "Date": "2022-04-15",
                "Url": ""
            },
            {
                "Distance": "300",
                "Date": "2022-05-28",
                "Url": ""
            }
        ]
    },
    {
        "Location": "Jönköping",
        "Organizer": "BeGe Olsson",
        "Email": "bege.bike@gmail.com",
        "Phone": "073-329 55 98",
        "Club": "Randonneur Väst",
        "Url": "https://www.randonneurvest.se/",
        "Brevets": [
            {
                "Distance": "600",
                "Date": "2022-07-14",
                "Url": ""
            },
            {
                "Distance": "1000",
                "Date": "2022-07-14",
                "Url": ""
            }
        ]
    },
    {
        "Location": "Köping",
        "Organizer": "Peter Tonér",
        "Email": "peter@ckdistans.se",
        "Phone": "070-520 50 65",
        "Club": "CK Distans",
        "Url": "https://ckdistans.wordpress.com/",
        "Brevets": [
            {
                "Distance": "200",
                "Date": "2022-02-12",
                "Url": "https://ridewithgps.com/routes/37192107"
            },
            {
                "Distance": "300",
                "Date": "2022-04-23",
                "Url": "https://ridewithgps.com/routes/28101506"
            }
        ]
    },
    {
        "Location": "Linköping",
        "Organizer": "Martin Nilsson",
        "Email": "randonneur.lkpg@gmail.com",
        "Phone": "076-277 37 68",
        "Club": "CK Hymer",
        "Url": "https://ckhymer.com/randonneur/",
        "Brevets": [
            {
                "Distance": "200",
                "Date": "2022-04-02",
                "Url": "https://www.alltrails.com/explore/map/ck_hymer_valdemarsvik_sydostra?referrer=gpsies"
            },
            {
                "Distance": "200",
                "Date": "2022-04-23",
                "Url": "https://www.alltrails.com/explore/map/ck_hymer_odensvi_20mil?referrer=gpsies"
            },
            {
                "Distance": "200",
                "Date": "2022-06-06",
                "Url": "https://www.alltrails.com/explore/map/ck-hymer-sodra-20mil"
            },
            {
                "Distance": "200",
                "Date": "2022-09-03",
                "Url": "https://www.alltrails.com/explore/map/ck_hymer_odensvi_20mil?referrer=gpsies"
            },
            {
                "Distance": "200",
                "Date": "2022-09-17",
                "Url": "https://ridewithgps.com/routes/25741192"
            },
            {
                "Distance": "300",
                "Date": "2022-05-07",
                "Url": "https://ridewithgps.com/routes/35304021"
            },
            {
                "Distance": "400",
                "Date": "2022-05-21",
                "Url": "https://www.alltrails.com/explore/map/ck-hymer-40mils-brevet"
            },
            {
                "Distance": "600",
                "Date": "2022-06-04",
                "Url": "https://www.alltrails.com/explore/map/ck-hymer_sodra_60_mil"
            }
        ]
    },
    {
        "Location": "Lund",
        "Organizer": "Nils Calmsund",
        "Email": "nils.calmsund@gmail.com",
        "Phone": "070-249 72 86",
        "Club": "Milslukaren",
        "Url": "https://milslukaren.se/",
        "Brevets": [
            {
                "Distance": "200",
                "Date": "2022-05-01",
                "Url": ""
            },
            {
                "Distance": "200",
                "Date": "2022-06-06",
                "Url": ""
            },
            {
                "Distance": "200",
                "Date": "2022-10-08",
                "Url": ""
            },
            {
                "Distance": "300",
                "Date": "2022-07-30",
                "Url": ""
            }
        ]
    },
    {
        "Location": "Malmö",
        "Organizer": "Nils Calmsund",
        "Email": "nils.calmsund@gmail.com",
        "Phone": "070-249 72 86",
        "Club": "Milslukaren",
        "Url": "https://milslukaren.se/",
        "Brevets": [
            {
                "Distance": "200",
                "Date": "2022-03-26",
                "Url": ""
            },
            {
                "Distance": "200",
                "Date": "2022-04-09",
                "Url": ""
            },
            {
                "Distance": "200",
                "Date": "2022-05-26",
                "Url": ""
            },
            {
                "Distance": "200",
                "Date": "2022-09-24",
                "Url": ""
            },
            {
                "Distance": "300",
                "Date": "2022-04-23",
                "Url": ""
            },
            {
                "Distance": "300",
                "Date": "2022-04-30",
                "Url": ""
            },
            {
                "Distance": "300",
                "Date": "2022-06-11",
                "Url": ""
            },
            {
                "Distance": "300",
                "Date": "2022-09-10",
                "Url": ""
            },
            {
                "Distance": "400",
                "Date": "2022-05-14",
                "Url": ""
            },
            {
                "Distance": "400",
                "Date": "2022-05-21",
                "Url": ""
            },
            {
                "Distance": "400",
                "Date": "2022-07-16",
                "Url": ""
            },
            {
                "Distance": "400",
                "Date": "2022-08-27",
                "Url": ""
            },
            {
                "Distance": "600",
                "Date": "2022-05-28",
                "Url": ""
            },
            {
                "Distance": "600",
                "Date": "2022-06-18",
                "Url": ""
            },
            {
                "Distance": "600",
                "Date": "2022-08-13",
                "Url": ""
            },
            {
                "Distance": "1000",
                "Date": "2022-07-09",
                "Url": ""
            }
        ]
    },
    {
        "Location": "Mölndal",
        "Organizer": "BeGe Olsson",
        "Email": "bege.bike@gmail.com",
        "Phone": "073-329 55 98",
        "Club": "Randonneur Väst",
        "Url": "http://www.randonneurvest.se/",
        "Brevets": [
            {
                "Distance": "200",
                "Date": "2022-04-18",
                "Url": ""
            },
            {
                "Distance": "200",
                "Date": "2022-04-30",
                "Url": ""
            },
            {
                "Distance": "200",
                "Date": "2022-08-27",
                "Url": ""
            },
            {
                "Distance": "300",
                "Date": "2022-04-30",
                "Url": ""
            },
            {
                "Distance": "300",
                "Date": "2022-05-21",
                "Url": ""
            },
            {
                "Distance": "300",
                "Date": "2022-08-13",
                "Url": ""
            },
            {
                "Distance": "400",
                "Date": "2022-06-25",
                "Url": ""
            },
            {
                "Distance": "400",
                "Date": "2022-07-30",
                "Url": ""
            },
            {
                "Distance": "600",
                "Date": "2022-06-25",
                "Url": ""
            }
        ]
    },
    {
        "Location": "Skövde",
        "Organizer": "Ulf Sandberg",
        "Email": "sandberg@artech.se",
        "Phone": "070-745 43 22",
        "Club": "Randonneur Väst",
        "Url": "https://www.randonneurvest.se/",
        "Brevets": [
            {
                "Distance": "200",
                "Date": "2022-04-23",
                "Url": ""
            },
            {
                "Distance": "200",
                "Date": "2022-05-10",
                "Url": ""
            },
            {
                "Distance": "200",
                "Date": "2022-08-06",
                "Url": ""
            },
            {
                "Distance": "200",
                "Date": "2022-09-10",
                "Url": ""
            },
            {
                "Distance": "300",
                "Date": "2022-05-07",
                "Url": ""
            },
            {
                "Distance": "300",
                "Date": "2022-05-12",
                "Url": ""
            },
            {
                "Distance": "300",
                "Date": "2022-06-11",
                "Url": ""
            },
            {
                "Distance": "400",
                "Date": "2022-05-14",
                "Url": ""
            },
            {
                "Distance": "400",
                "Date": "2022-05-16",
                "Url": ""
            },
            {
                "Distance": "600",
                "Date": "2022-05-19",
                "Url": ""
            },
            {
                "Distance": "600",
                "Date": "2022-05-28",
                "Url": ""
            }
        ]
    },
    {
        "Location": "Södertälje",
        "Organizer": "Åsa Hittig",
        "Email": "sodertalje@randonneurstockholm.se",
        "Phone": "070-719 55 19",
        "Club": "Randonneur Stockholm",
        "Url": "https://www.randonneurstockholm.se/",
        "Brevets": [
            {
                "Distance": "200",
                "Date": "2021-11-20",
                "Url": "https://www.randonneurstockholm.se/events/sodertorns-parla/"
            },
            {
                "Distance": "200",
                "Date": "2021-12-11",
                "Url": "https://www.randonneurstockholm.se/events/slottsrundankopia/"
            },
            {
                "Distance": "200",
                "Date": "2022-04-02",
                "Url": "https://www.randonneurstockholm.se/events/sodertorns-parla-2/"
            },
            {
                "Distance": "200",
                "Date": "2022-06-06",
                "Url": "https://www.randonneurstockholm.se/events/slottsrundan/"
            },
            {
                "Distance": "200",
                "Date": "2022-10-01",
                "Url": "https://www.randonneurstockholm.se/events/sportgruskopia/"
            },
            {
                "Distance": "300",
                "Date": "2022-04-23",
                "Url": "https://www.randonneurstockholm.se/events/sodertalje-300/"
            },
            {
                "Distance": "400",
                "Date": "2022-05-21",
                "Url": "https://www.randonneurstockholm.se/events/sodertalje-400/"
            },
            {
                "Distance": "600",
                "Date": "2022-05-28",
                "Url": "https://www.randonneurstockholm.se/events/sodertalje-2/"
            },
            {
                "Distance": "1000",
                "Date": "2022-06-16",
                "Url": "https://www.randonneurstockholm.se/events/sodertalje-1000/"
            }
        ]
    },
    {
        "Location": "Tranås",
        "Organizer": "Martin Bonta",
        "Email": "martin.bonta@gmail.com",
        "Phone": "072-244 17 82",
        "Club": "Tranås Cykelklubb",
        "Url": "https://idrottonline.se/TranasCykelklubb-Cykel/Randonneur",
        "Brevets": [
            {
                "Distance": "200",
                "Date": "2022-04-09",
                "Url": "https://ridewithgps.com/routes/37270122"
            },
            {
                "Distance": "200",
                "Date": "2022-08-20",
                "Url": "https://ridewithgps.com/routes/37270122"
            },
            {
                "Distance": "300",
                "Date": "2022-04-23",
                "Url": "https://ridewithgps.com/routes/37282005"
            }
        ]
    },
    {
        "Location": "Trollhättan",
        "Organizer": "Ulrika Möller",
        "Email": "moller.ulrika@telia.com",
        "Phone": "070-085 39 11",
        "Club": "CK Distans",
        "Url": "https://ckdistans.wordpress.com/",
        "Brevets": [
            {
                "Distance": "200",
                "Date": "2022-03-05",
                "Url": "https://ridewithgps.com/routes/35379363"
            },
            {
                "Distance": "200",
                "Date": "2022-03-26",
                "Url": "https://ridewithgps.com/routes/35379363"
            },
            {
                "Distance": "200",
                "Date": "2022-09-03",
                "Url": "https://ridewithgps.com/routes/35379363"
            },
            {
                "Distance": "300",
                "Date": "2022-04-23",
                "Url": "https://ridewithgps.com/routes/35390999"
            },
            {
                "Distance": "300",
                "Date": "2022-06-11",
                "Url": "https://ridewithgps.com/routes/35390999"
            },
            {
                "Distance": "400",
                "Date": "2022-05-21",
                "Url": "https://ridewithgps.com/routes/35835558"
            },
            {
                "Distance": "600",
                "Date": "2022-07-02",
                "Url": "https://ridewithgps.com/routes/36326055"
            },
            {
                "Distance": "1000",
                "Date": "2022-07-14",
                "Url": ""
            }
        ]
    },
    {
        "Location": "Täby",
        "Organizer": "Bengt Sandborgh",
        "Email": "bengt.sandborgh@randonneurs.se",
        "Phone": "070-329 01 14",
        "Club": "Randonneur Stockholm",
        "Url": "https://www.randonneurstockholm.se/",
        "Brevets": [
            {
                "Distance": "200",
                "Date": "2022-04-02",
                "Url": ""
            },
            {
                "Distance": "200",
                "Date": "2022-09-10",
                "Url": ""
            },
            {
                "Distance": "300",
                "Date": "2022-04-23",
                "Url": ""
            },
            {
                "Distance": "300",
                "Date": "2022-08-20",
                "Url": ""
            },
            {
                "Distance": "400",
                "Date": "2022-05-14",
                "Url": ""
            },
            {
                "Distance": "600",
                "Date": "2022-05-28",
                "Url": ""
            }
        ]
    },
    {
        "Location": "Umeå",
        "Organizer": "Florian Kynman",
        "Email": "floriank2@gmail.com",
        "Phone": "070-562 94 86",
        "Club": "Cykelintresset",
        "Url": "https://vasterbottenbrevet.se/brevet-serie/",
        "Brevets": [
            {
                "Distance": "200",
                "Date": "2022-04-30",
                "Url": "https://www.strava.com/routes/27852857"
            },
            {
                "Distance": "200",
                "Date": "2022-05-07",
                "Url": "https://www.strava.com/routes/27852857"
            },
            {
                "Distance": "200",
                "Date": "2022-07-02",
                "Url": "https://www.strava.com/routes/2871023570381671004"
            },
            {
                "Distance": "200",
                "Date": "2022-07-23",
                "Url": "https://www.strava.com/routes/2856228137047114018"
            },
            {
                "Distance": "300",
                "Date": "2022-05-14",
                "Url": "https://www.strava.com/routes/2829750315831332552"
            },
            {
                "Distance": "300",
                "Date": "2022-05-21",
                "Url": "https://www.strava.com/routes/2829750315831332552"
            },
            {
                "Distance": "300",
                "Date": "2022-06-11",
                "Url": "https://www.strava.com/routes/2874270916682183214"
            },
            {
                "Distance": "400",
                "Date": "2022-05-28",
                "Url": "https://www.strava.com/routes/2851772940382696562"
            },
            {
                "Distance": "400",
                "Date": "2022-06-04",
                "Url": "https://www.strava.com/routes/2851772940382696562"
            },
            {
                "Distance": "600",
                "Date": "2022-06-25",
                "Url": "https://www.strava.com/routes/2714033380373103080"
            },
            {
                "Distance": "600",
                "Date": "2022-07-09",
                "Url": "https://www.strava.com/routes/2718023405605451926"
            },
            {
                "Distance": "600",
                "Date": "2022-07-16",
                "Url": "https://www.strava.com/routes/2712628059952722736"
            }
        ]
    },
    {
        "Location": "Uppsala",
        "Organizer": "Per Eric Rosén",
        "Email": "per@rosnix.net",
        "Phone": "070-946 10 00",
        "Club": "Randonneur Stockholm",
        "Url": "https://www.randonneurstockholm.se/",
        "Brevets": [
            {
                "Distance": "200",
                "Date": "2021-11-06",
                "Url": ""
            },
            {
                "Distance": "200",
                "Date": "2022-02-05",
                "Url": ""
            },
            {
                "Distance": "200",
                "Date": "2022-03-26",
                "Url": ""
            },
            {
                "Distance": "200",
                "Date": "2022-05-14",
                "Url": ""
            },
            {
                "Distance": "200",
                "Date": "2022-10-22",
                "Url": ""
            },
            {
                "Distance": "300",
                "Date": "2022-05-28",
                "Url": ""
            },
            {
                "Distance": "300",
                "Date": "2022-09-24",
                "Url": ""
            },
            {
                "Distance": "400",
                "Date": "2022-07-02",
                "Url": ""
            },
            {
                "Distance": "600",
                "Date": "2022-08-20",
                "Url": ""
            }
        ]
    },
    {
        "Location": "Varberg",
        "Organizer": "Tore Fosse",
        "Email": "tore.fosse@outlook.com",
        "Phone": "073-333 20 71",
        "Club": "CK WANO",
        "Url": "http://ckwano.se/",
        "Brevets": [
            {
                "Distance": "200",
                "Date": "2022-04-09",
                "Url": "https://ridewithgps.com/routes/37689665"
            },
            {
                "Distance": "200",
                "Date": "2022-04-18",
                "Url": "https://ridewithgps.com/routes/37689722"
            },
            {
                "Distance": "200",
                "Date": "2022-05-07",
                "Url": "https://ridewithgps.com/routes/37689665"
            },
            {
                "Distance": "200",
                "Date": "2022-05-21",
                "Url": "https://ridewithgps.com/routes/37689665"
            },
            {
                "Distance": "300",
                "Date": "2022-05-07",
                "Url": "https://ridewithgps.com/routes/37690663"
            },
            {
                "Distance": "300",
                "Date": "2022-05-21",
                "Url": "https://ridewithgps.com/routes/37690663"
            },
            {
                "Distance": "300",
                "Date": "2022-06-11",
                "Url": "https://ridewithgps.com/routes/37690663"
            },
            {
                "Distance": "400",
                "Date": "2022-05-21",
                "Url": "https://ridewithgps.com/routes/37689882"
            },
            {
                "Distance": "600",
                "Date": "2022-06-18",
                "Url": "https://ridewithgps.com/routes/37682606"
            }
        ]
    },
    {
        "Location": "Västerås",
        "Organizer": "Jonas Nilsso",
        "Email": "jonas@westaros.com",
        "Phone": "070-445 44 39",
        "Club": "CK Distans",
        "Url": "https://ckdistans.wordpress.com/",
        "Brevets": [
            {
                "Distance": "200",
                "Date": "2022-05-26",
                "Url": "https://ridewithgps.com/routes/37298877"
            },
            {
                "Distance": "200",
                "Date": "2022-04-09",
                "Url": "https://ridewithgps.com/routes/11959430"
            },
            {
                "Distance": "300",
                "Date": "2022-06-11",
                "Url": "https://ridewithgps.com/routes/32309053"
            },
            {
                "Distance": "400",
                "Date": "2022-04-30",
                "Url": "https://ridewithgps.com/routes/20163239"
            },
            {
                "Distance": "600",
                "Date": "2022-05-21",
                "Url": "https://ridewithgps.com/routes/33157543"
            }
        ]
    },
    {
        "Location": "Örebro",
        "Organizer": "Per-Erik Egebäck",
        "Email": "randonneur@orebrocyklisterna.se",
        "Phone": "073-370 63 12",
        "Club": "Örebro Cyklisterna",
        "Url": "https://orebrocyklisterna.se/tj%C3%A4nster/randonneur/",
        "Brevets": [
            {
                "Distance": "200",
                "Date": "2022-04-09",
                "Url": "http://www.gpsies.com/map.do?fileId=whhntguustsvldkd"
            },
            {
                "Distance": "200",
                "Date": "2022-04-23",
                "Url": "http://www.gpsies.com/map.do?fileId=rzxhknizpmwmokxx"
            },
            {
                "Distance": "200",
                "Date": "2022-06-06",
                "Url": "https://ridewithgps.com/routes/36101639"
            },
            {
                "Distance": "200",
                "Date": "2022-09-03",
                "Url": "http://www.gpsies.com/map.do?fileId=whhntguustsvldkd"
            },
            {
                "Distance": "300",
                "Date": "2022-05-07",
                "Url": "http://www.gpsies.com/map.do?fileId=jgcskmkbvztqipwb"
            },
            {
                "Distance": "300",
                "Date": "2022-05-14",
                "Url": "http://www.gpsies.com/map.do?fileId=zfimpnciwjbzpjmx"
            },
            {
                "Distance": "300",
                "Date": "2022-06-11",
                "Url": "http://www.gpsies.com/map.do?fileId=zfimpnciwjbzpjmx"
            },
            {
                "Distance": "300",
                "Date": "2022-08-27",
                "Url": "http://www.gpsies.com/map.do?fileId=jgcskmkbvztqipwb"
            },
            {
                "Distance": "400",
                "Date": "2022-06-18",
                "Url": "http://www.gpsies.com/map.do?fileId=rfelioontfclzogg"
            },
            {
                "Distance": "400",
                "Date": "2022-08-20",
                "Url": "http://www.gpsies.com/map.do?fileId=yluyxsyhjetgsqer"
            },
            {
                "Distance": "600",
                "Date": "2022-07-02",
                "Url": "http://www.gpsies.com/map.do?fileId=moxeouxkfeiocksy"
            },
            {
                "Distance": "600",
                "Date": "2022-08-06",
                "Url": "http://www.gpsies.com/map.do?fileId=moxeouxkfeiocksy"
            }
        ]
    }
]
